PD_OneShot_Report
…
  message('Loaded ', nrow(dsb_locs), ' DSB insertion positions across ',
          n_distinct(dsb_locs$Chromosome), ' chromosomes.')
  print(dsb_locs %>% select(DSB_Num, Primer_Locus_Label, Chromosome, Coord_Start, Coord_End,
                             `Gene Name`, `Primer Name`))
} else {
  warning('Insertion_Primers_for_Locations_of_DSBs.csv not found in workspace root.')
}

New names:
• `Chromosome Coordinate` -> `Chromosome Coordinate...5`
• `Chromosome Coordinate` -> `Chromosome Coordinate...6`
Loaded 28 DSB insertion positions across 5 chromosomes.

# A tibble: 28 × 7
   DSB_Num Primer_Locus_Label Chromosome Coord_Start Coord_End `Gene Name`    
     <int> <chr>              <chr>            <int>     <int> <chr>          
 1       2 III_L02_FWD        III              37616     37835 APA1           
 2       3 III_L03_FWD        III             130281    130744 SAT4           
 3       4 III_L04_FWD        III             289797    293178 Uncharacterized
 4       1 IV_L01_FWD         IV                7814      8682 SOR2           
 5       3 IV_L03_FWD         IV              130002    130406 RPL41A         
 6       6 IV_L06_2_FWD       IV              244981    245132 YDL121C        
 7       8 IV_L08_FWD         IV              340282    340627 RPS29B         
 8      10 IV_L10_2_FWD       IV              492324    492555 RPS11A         
 9      13 IV_L13_FWD         IV              712994    713339 MTC6           
10      12 IV_L12_2_FWD       IV              913924    914316 YDR214W        
# ℹ 18 more rows
# ℹ 1 more variable: `Primer Name` <chr>
…
